Assignment I
…
library(vip)
simple_logit <- function(data, x) {
  library(vip)
  fit_glm <- glm(as.formula(paste("G3 ~", x)), data = data, family = "binomial")
  vi(fit_glm) 
}

vips <- map_df(.x = names(baseline_rec %>% select(-G3)), 
        .f = ~ simple_logit(data = baseline_rec %>% mutate(G3 = 1-(as.numeric(G3) - 1)), 
                            x = .x))
vips %>% 
  arrange(desc(Importance))

# A tibble: 69 × 3
   Variable      Importance Sign 
   <chr>              <dbl> <chr>
 1 G1                  8.58 POS  
 2 G2                  6.69 POS  
 3 failures            5.53 NEG  
 4 age                 2.89 NEG  
 5 guardianother       2.61 NEG  
 6 health4             2.32 NEG  
 7 health3             2.18 NEG  
 8 schoolsupyes        2.07 NEG  
 9 higheryes           1.97 POS  
10 health5             1.93 NEG  
# ℹ 59 more rows

พิจารณาว่าจะเกิดปัญหา multicollinearity มั้ย

baseline_rec %>% 
  select(Walc)

# A tibble: 316 × 1
   Walc 
   <fct>
 1 1    
 2 1    
 3 2    
 4 4    
 5 1    
 6 3    
 7 1    
 8 2    
 9 1    
10 1    
# ℹ 306 more rows
…
