Week 3-4: Feature Engineering
…
ชุดข้อมูลตัวอย่าง

library(naniar)
data %>% 
  miss_var_summary()

# A tibble: 21 × 3
   variable       n_miss pct_miss
   <chr>           <int>    <num>
 1 payment_status    395     32.9
 2 family_income     255     21.2
 3 library_usage     169     14.1
 4 work_status       156     13  
 5 student_id          0      0  
 6 age                 0      0  
 7 years_study         0      0  
 8 major               0      0  
 9 level               0      0  
10 gpa                 0      0  
# ℹ 11 more rows
…
- เขียนคำสั่งแบบ “ประกาศ” ว่า จะทำอะไร พร้อมข้อกำหนด (constraints)

- การรันจริงจะเกิดขึ้น “ทีหลัง” ตามที่ผู้ใช้หรือโปรแกรมกำหนด

- เช่น การสร้าง recipe ใน tidymodels

rec <- recipe(y ~ ., data = train) |>
    step_normalize(all_numeric_predictors())

หลักการของ recipes

bake(rec_preped, new_data = NULL)  # แปลง train

# A tibble: 960 × 27
   student_id     age years_study    gpa credits_per_term withdrawal_count
        <int>   <dbl>       <dbl>  <dbl>            <dbl>            <dbl>
 1         12  0.380        0.189 -1.49            -0.458            0.301
 2         26 -1.41         0.880 -0.405           -0.974            0.301
 3         29 -1.41         2.26  -1.87            -2.01             1.27 
 4         51 -0.515        2.26  -1.69            -0.458            0.301
 5         62  0.827       -0.501 -1.55             0.315            1.27 
 6         74 -0.0675       0.880 -2.67             0.315            3.21 
 7        103  1.27         0.880 -1.89            -0.200            2.24 
 8        145  0.827        2.26  -1.57            -2.01             2.24 
 9        151 -1.41         1.57  -1.35            -0.200            1.27 
10        170  2.17         0.189 -2.08             0.315            1.27 
# ℹ 950 more rows
# ℹ 21 more variables: failed_courses <dbl>, family_income <dbl>,
#   monthly_expense <dbl>, absence_count <dbl>, activity_participation <dbl>,
#   library_usage <dbl>, distance_from_home <dbl>, commute_hours <dbl>,
#   academic_risk <fct>, major_Engineering <dbl>, major_Liberal.Arts <dbl>,
#   major_Medicine <dbl>, major_Science <dbl>, level_Undergraduate <dbl>,
#   work_status_Working <dbl>, scholarship_status_None <dbl>, …
…
