Feature Engineering
…
Note:

step_discretize_cart() และ step_discretize_xgb() ใช้การแบ่งกลุ่มของตัวแปรเชิงปริมาณให้เป็นกลุ่มหรือตัวแปรประเภท โดยใช้โมเดล Classification and Regression Trees (CART) และ Extreme Gradient Boosting (XGBoost) ตามลำดับ หลักการทำงานคร่าว ๆ ทั้งสองอัลกอริทึมเป็นกลุ่ม supervised discretization ใช้การเรียนรู้ของเครื่องช่วยแบ่งตัวแปรเชิงปริมาณให้ได้ผลลัพธ์เป็นตัวแปรจัดประเภทที่มีความสัมพันธ์กับตัวแปรตามมากที่สุด ทั้งสองฟังก์ชันสามารถ tune ค่า hyperparameter ได้เพื่อให้ได้ผลลัพธ์ที่ต้องการ

step_lencode_glm() เป็นฟังก์ชันในกลุ่ม Supervised Factor Conversion มีหน้าที่แปลง Factor ให้เป็นตัวเลขโดยใช้โมเดล Generalized Linear Model (GLM) เราอาจอธิบายหลักการทำงานคร่าว ๆ ได้ดังนี้

สร้าง glm ที่ทำนาย outcome ของโมเดลกับ predictor ที่เป็น factor

ใช้ค่าสัมประสิทธิ์ของโมเดลที่ได้จาก glm เป็นคะแนนของระดับปัจจัยแต่ละระดับ

step_lencode_bayes() หลักการเดียวกับ glm แต่เปลี่ยนการประมาณค่าพารามิเตอร์ในโมเดลเป็น bayesian glm ผลลัพธ์ที่ได้จะมีความแกร่งว่าการใช้ glm แบบปกติโดยเฉพาะกรณีขนาดตัวอย่างเล็ก ความแตกต่างอีกส่วนนึงที่น่าสนใจคือ step_lencode_bayes() จะให้ solution ที่แตกต่างกันไปในแต่ละครั้ง เนื่องจากการประมาณค่าพารามิเตอร์ใช้ Markov Chain Monte Carlo (MCMC) ที่อิงกับตัวเลขสุ่ม

step_lencode_mixed() หลักการเดียวกับ glm แต่ใช้ mixed-effects model แทน เหมาะกับข้อมูลที่มีโครงสร้างแบบ hierarchical หรือ panel data

# A tibble: 314 × 33
   school sex     age address famsize Pstatus Medu  Fedu   Mjob Fjob     reason 
   <fct>  <fct> <dbl> <fct>   <fct>   <fct>   <fct> <fct> <dbl> <fct>    <fct>  
 1 GP     F        17 U       GT3     A       4     4      9.82 teacher  home   
 2 GP     M        17 U       GT3     T       3     2     11.0  services course 
 3 GP     F        15 R       GT3     T       2     4     11.0  health   course 
 4 GP     F        16 U       GT3     T       2     2     11.0  services home   
 5 GP     F        15 U       GT3     T       2     3      9.82 other    other  
 6 GP     F        15 U       LE3     A       4     3      9.82 other    course 
 7 GP     F        15 U       GT3     T       4     4     11.0  teacher  other  
 8 GP     F        15 R       GT3     T       1     1      9.82 other    reputa…
 9 GP     F        16 U       GT3     T       3     4      9.24 other    course 
10 GP     F        15 U       LE3     T       3     2     11.0  other    reputa…
# ℹ 304 more rows
# ℹ 22 more variables: guardian <fct>, traveltime <fct>, studytime <fct>,
#   failures <dbl>, schoolsup <fct>, famsup <fct>, paid <fct>,
#   activities <fct>, nursery <fct>, higher <fct>, internet <fct>,
#   romantic <fct>, famrel <fct>, freetime <fct>, goout <fct>, Dalc <fct>,
#   Walc <fct>, health <fct>, absences <dbl>, G1 <dbl>, G2 <dbl>, G3 <dbl>
…
คำนวณค่า WOE ซึ่งมีค่าเท่ากับ log(odds) ของการเกิด outcome ที่สนใจจำแนกตาม level ของ factor ที่ต้องการแปลง หากใน level ไหนของ factor ไม่มี event หรือ non-event จะใช้เทคนิค Laplace Smoothing เพื่อเลี่ยงการหารด้วย 0

แทน factor level แต่ละตัวด้วย woe value

5. Transforming Numerical Variables

คือการแปลงคะแนนของตัวแปรเชิงปริมาณให้มีลักษณะการแจกแจงหรืออยู่ในรูปแบบที่เหมาะสำหรับการนำไปวิเคราะห์ด้วยโมเดลการเรียนรู้ของเครื่อง หรือในบางกรณีเป็นการสร้างตัวแปรใหม่เพื่อเพิ่มประสิทธิภาพการเรียนรู้ของโมเดล

Note:

step_pls() คือ Partial Least Squares (PLS) ซึ่งเป็นเทคนิค supervised dimensionality reduction และ feature extraction เพื่อสร้างตัวแปรใหม่ที่เป็น linear combination ของตัวแปรเดิมที่มีอยู่ (องค์ประกอบ) ที่มีความสัมพันธ์กับ outcome มากที่สุด

จะใช้ฟังก์ชันนี้ได้จะต้องมี library-mixOmics ติดตั้งก่อน ซึ่ง library ดังกล่าวอยู่ใน Bioconductor server สามารถติดตั้งได้ดังนี้

# A tibble: 314 × 31
   school sex   address famsize Pstatus Medu  Fedu  Mjob   Fjob  reason guardian
   <fct>  <fct> <fct>   <fct>   <fct>   <fct> <fct> <fct>  <fct> <fct>  <fct>   
 1 GP     F     U       GT3     A       4     4     other  teac… home   mother  
 2 GP     M     U       GT3     T       3     2     servi… serv… course mother  
 3 GP     F     R       GT3     T       2     4     servi… heal… course mother  
 4 GP     F     U       GT3     T       2     2     servi… serv… home   mother  
 5 GP     F     U       GT3     T       2     3     other  other other  father  
 6 GP     F     U       LE3     A       4     3     other  other course mother  
 7 GP     F     U       GT3     T       4     4     servi… teac… other  father  
 8 GP     F     R       GT3     T       1     1     other  other reput… mother  
 9 GP     F     U       GT3     T       3     4     at_ho… other course mother  
10 GP     F     U       LE3     T       3     2     servi… other reput… mother  
# ℹ 304 more rows
# ℹ 20 more variables: traveltime <fct>, studytime <fct>, schoolsup <fct>,
#   famsup <fct>, paid <fct>, activities <fct>, nursery <fct>, higher <fct>,
#   internet <fct>, romantic <fct>, famrel <fct>, freetime <fct>, goout <fct>,
#   Dalc <fct>, Walc <fct>, health <fct>, G3 <dbl>, PLS1 <dbl>, PLS2 <dbl>,
#   PLS3 <dbl>
…
