Untitled
…
ระบุอัลกอริทึมที่จะใช้เรียนรู้ข้อมูลเพื่อสร้างโมเดลทำนาย

Linear Regression Model Specification (regression)

Computational engine: lm 

fit โมเดลกับข้อมูล (train model)

# A tibble: 275 × 33
   school sex     age address famsize Pstatus  Medu  Fedu Mjob     Fjob   reason
   <chr>  <chr> <dbl> <chr>   <chr>   <chr>   <dbl> <dbl> <chr>    <chr>  <chr> 
 1 GP     M        17 U       GT3     T           3     2 services servi… course
 2 GP     F        15 R       GT3     T           2     4 services health course
 3 GP     F        16 U       GT3     T           2     2 services servi… home  
 4 GP     F        15 U       GT3     T           2     3 other    other  other 
 5 GP     F        15 U       LE3     A           4     3 other    other  course
 6 GP     F        15 U       GT3     T           4     4 services teach… other 
 7 GP     F        15 R       GT3     T           1     1 other    other  reput…
 8 GP     F        16 U       GT3     T           3     4 at_home  other  course
 9 GP     F        15 U       LE3     T           3     2 services other  reput…
10 GP     F        15 U       GT3     T           4     4 services servi… reput…
# ℹ 265 more rows
# ℹ 22 more variables: guardian <chr>, traveltime <dbl>, studytime <dbl>,
#   failures <dbl>, schoolsup <chr>, famsup <chr>, paid <chr>,
#   activities <chr>, nursery <chr>, higher <chr>, internet <chr>,
#   romantic <chr>, famrel <dbl>, freetime <dbl>, goout <dbl>, Dalc <dbl>,
#   Walc <dbl>, health <dbl>, absences <dbl>, G1 <dbl>, G2 <dbl>, G3 <dbl>
…
