Week 1: Introduction to Machine Learning
…
ผลการสำรวจพบว่ามีตัวแปรที่ไม่เกี่ยวข้องคือภูมิหลังได้แก่ เพศ และสาขาวิชาของนักเรียน ดังนั้นเราจะคัดตัวแปรดังกล่าวออกไปจากชุดข้อมูลก่อน

data_use <- data %>% select(-gender, -department)
data_use

# A tibble: 385 × 8
   choose_method concepts interpretation research_score submit_time
           <dbl>    <dbl>          <dbl>          <dbl>       <dbl>
 1            60     57.1           56.2             72       156. 
 2            40     57.1           31.2             72       145. 
 3            40     42.9           50               71       141. 
 4            20     50             43.8             72       150. 
 5            10     21.4           50               62       129. 
 6            20     42.9           75               75       162. 
 7            20     64.3           56.2             82       130. 
 8            40     57.1           50               76        88.6
 9            50     64.3           62.5             85       130. 
10            60     42.9           56.2             73       109. 
# ℹ 375 more rows
# ℹ 3 more variables: percent_submit <dbl>, learning_performance <dbl>,
#   cheat_index <dbl>
…
