Week3 : Data Import & Tidying
…
ไม่ควรมีช่องว่าง

ห้ามมีอักขระพิเศษ เช่น @, #, $, %, ^, &, *, (, ), +, =, {, }, [, ], , |, :, ;, “, ’, <, >, ?, /

การกำหนดชื่อตัวแปรใน R เป็น case sensitive เช่น Age กับ age ถือเป็นคนละตัวแปร แนะนำว่าถ้าไม่มีความจำเป็นควรใช้ตัวพิมพ์เล็กทั้งหมด

Syntactic Names: names()

การปรับชื่อของตัวแปรให้เป็นไปตามหลักข้างต้นสามารถทำได้หลายวิธี เช่น การใช้ฟังก์ชัน names()

names(teacher_salary_data)[1] <- "teacher_id"
names(teacher_salary_data)[c(2,4,5)] <- c("teacher_position", "yrs_since_phd", "yrs_service")
teacher_salary_data

# A tibble: 397 × 7
   teacher_id teacher_position discipline yrs_since_phd yrs_service sex   salary
        <dbl> <chr>            <chr>              <dbl>       <dbl> <chr>  <dbl>
 1          1 Prof             B                     19          18 Male  139750
 2          2 Prof             B                     20          16 Male  173200
 3          3 AsstProf         B                      4           3 Male   79750
 4          4 Prof             B                     45          39 Male  115000
 5          5 Prof             B                     40          41 Male  141500
 6          6 AssocProf        N/A                    6           6 Male   97000
 7          7 Prof             B                     30          23 Male  175000
 8          8 Prof             B                     45          45 Male  147765
 9          9 Prof             B                     21          20 Male  119250
10         10 Prof             B                     18          18 Fema… 129000
# ℹ 387 more rows

Syntactic Names: rename()

rename(teacher_salary_data, 
       teacher_id = 1, 
       teacher_position = `teacher position`,
       yrs_since_phd = yrs.since.phd,
       yrs_service = 5,
       "gender" = "sex")

# A tibble: 397 × 7
   teacher_id teacher_position discipline yrs_since_phd yrs_service gender
        <dbl> <chr>            <chr>              <dbl>       <dbl> <chr> 
 1          1 Prof             B                     19          18 Male  
 2          2 Prof             B                     20          16 Male  
 3          3 AsstProf         B                      4           3 Male  
 4          4 Prof             B                     45          39 Male  
 5          5 Prof             B                     40          41 Male  
 6          6 AssocProf        N/A                    6           6 Male  
 7          7 Prof             B                     30          23 Male  
 8          8 Prof             B                     45          45 Male  
 9          9 Prof             B                     21          20 Male  
10         10 Prof             B                     18          18 Female
# ℹ 387 more rows
# ℹ 1 more variable: salary <dbl>

Syntactic Names: clean_names()

อีกวิธีการหนึ่งคือใช้ฟังก์ชัน clean_names() จาก library janitor

ฟังก์ชันนี้จะทำความสะอาด column ที่ไม่เป็นระเบียบให้เป็นไปตามหลัก Syntactic Names โดยอัตโนมัติ

library(janitor)
clean_names(teacher_salary_data)

# A tibble: 397 × 7
      x1 teacher_position discipline yrs_since_phd yrs_service sex    salary
   <dbl> <chr>            <chr>              <dbl>       <dbl> <chr>   <dbl>
 1     1 Prof             B                     19          18 Male   139750
 2     2 Prof             B                     20          16 Male   173200
 3     3 AsstProf         B                      4           3 Male    79750
 4     4 Prof             B                     45          39 Male   115000
 5     5 Prof             B                     40          41 Male   141500
 6     6 AssocProf        N/A                    6           6 Male    97000
 7     7 Prof             B                     30          23 Male   175000
 8     8 Prof             B                     45          45 Male   147765
 9     9 Prof             B                     21          20 Male   119250
10    10 Prof             B                     18          18 Female 129000
# ℹ 387 more rows

Column Specification: การตรวจสอบประเภทตัวแปร

การตรวจสอบ column specification สามารถทำได้หลายวิธีการ

วิธีการแรกคือเรียกชุดข้อมูลขึ้นมาดูโดยตรง

teacher_salary_data

# A tibble: 397 × 7
   teacher_id teacher_position discipline yrs_since_phd yrs_service gender
        <dbl> <chr>            <chr>              <dbl>       <dbl> <chr> 
 1          1 Prof             B                     19          18 Male  
 2          2 Prof             B                     20          16 Male  
 3          3 AsstProf         B                      4           3 Male  
 4          4 Prof             B                     45          39 Male  
 5          5 Prof             B                     40          41 Male  
 6          6 AssocProf        N/A                    6           6 Male  
 7          7 Prof             B                     30          23 Male  
 8          8 Prof             B                     45          45 Male  
 9          9 Prof             B                     21          20 Male  
10         10 Prof             B                     18          18 Female
# ℹ 387 more rows
# ℹ 1 more variable: salary <dbl>
…
adjusted_coltype <- cols(
  ...1 = col_double(),
  `teacher position` = col_factor(
                       levels = c("AsstProf","AssocProf","Prof"),
                       order = TRUE),
  discipline = col_factor(levels = c("A","B")),
  yrs.since.phd = col_double(),
  yrs.service = col_double(),
  sex = col_factor(),
  salary = col_double()
)
read_csv("TeacherSalaryData.csv",
         col_types = adjusted_coltype)

# A tibble: 397 × 7
    ...1 `teacher position` discipline yrs.since.phd yrs.service sex    salary
   <dbl> <ord>              <fct>              <dbl>       <dbl> <fct>   <dbl>
 1     1 Prof               B                     19          18 Male   139750
 2     2 Prof               B                     20          16 Male   173200
 3     3 AsstProf           B                      4           3 Male    79750
 4     4 Prof               B                     45          39 Male   115000
 5     5 Prof               B                     40          41 Male   141500
 6     6 AssocProf          <NA>                   6           6 Male    97000
 7     7 Prof               B                     30          23 Male   175000
 8     8 Prof               B                     45          45 Male   147765
 9     9 Prof               B                     21          20 Male   119250
10    10 Prof               B                     18          18 Female 129000
# ℹ 387 more rows
…
as.character()

factor()

teacher_salary_data$teacher_position <- factor(teacher_salary_data$teacher_position,
                                        levels = c("AsstProf","AssocProf","Prof"),
                                        ordered = TRUE)
teacher_salary_data$discipline <- factor(teacher_salary_data$discipline,
                                         levels = c("A","B"),
                                         labels = c("Science","Social_Science"))
teacher_salary_data$gender <- factor(teacher_salary_data$gender)
teacher_salary_data

# A tibble: 397 × 7
   teacher_id teacher_position discipline     yrs_since_phd yrs_service gender salary
        <dbl> <ord>            <fct>                  <dbl>       <dbl> <fct>   <dbl>
 1          1 Prof             Social_Science            19          18 Male   139750
 2          2 Prof             Social_Science            20          16 Male   173200
 3          3 AsstProf         Social_Science             4           3 Male    79750
 4          4 Prof             Social_Science            45          39 Male   115000
 5          5 Prof             Social_Science            40          41 Male   141500
 6          6 AssocProf        <NA>                       6           6 Male    97000
 7          7 Prof             Social_Science            30          23 Male   175000
 8          8 Prof             Social_Science            45          45 Male   147765
 9          9 Prof             Social_Science            21          20 Male   119250
10         10 Prof             Social_Science            18          18 Female 129000
# ℹ 387 more rows

Column Specification: การปรับเปลี่ยนประเภทตัวแปร

อีกวิธีการหนึ่งน่าจะต้องรู้จักมาก ๆ คือ การใช้ฟังก์ชัน mutate() ร่วมกับฟังก์ชันพื้นฐาน

teacher_salary_data <- mutate(teacher_salary_data,
       teacher_position = factor(teacher_position,
                                 levels = c("AsstProf","AssocProf","Prof"),
                                 ordered = TRUE),
       discipline = factor(discipline, levels = c("A","B"), labels = c("Science","Social_Science")))

teacher_salary_data

# A tibble: 397 × 7
   teacher_id teacher_position discipline     yrs_since_phd yrs_service gender salary
        <dbl> <ord>            <fct>                  <dbl>       <dbl> <chr>   <dbl>
 1          1 Prof             Social_Science            19          18 Male   139750
 2          2 Prof             Social_Science            20          16 Male   173200
 3          3 AsstProf         Social_Science             4           3 Male    79750
 4          4 Prof             Social_Science            45          39 Male   115000
 5          5 Prof             Social_Science            40          41 Male   141500
 6          6 AssocProf        <NA>                       6           6 Male    97000
 7          7 Prof             Social_Science            30          23 Male   175000
 8          8 Prof             Social_Science            45          45 Male   147765
 9          9 Prof             Social_Science            21          20 Male   119250
10         10 Prof             Social_Science            18          18 Female 129000
# ℹ 387 more rows
…
การลงรหัส Missing Value

วิธีการแรกคือการกำหนดรหัสของ missing value ไว้ตั้งแต่ตอนนำเข้าข้อมูล

read_csv(file = "TeacherSalaryData.csv",
         na = c("N/A", "-999"))

# A tibble: 397 × 7
    ...1 `teacher position` discipline yrs.since.phd yrs.service sex    salary
   <dbl> <chr>              <chr>              <dbl>       <dbl> <chr>   <dbl>
 1     1 Prof               B                     19          18 Male   139750
 2     2 Prof               B                     20          16 Male   173200
 3     3 AsstProf           B                      4           3 Male    79750
 4     4 Prof               B                     45          39 Male   115000
 5     5 Prof               B                     40          41 Male   141500
 6     6 AssocProf          <NA>                   6           6 Male    97000
 7     7 Prof               B                     30          23 Male   175000
 8     8 Prof               B                     45          45 Male   147765
 9     9 Prof               B                     21          20 Male   119250
10    10 Prof               B                     18          18 Female 129000
# ℹ 387 more rows

การลงรหัส Missing Value

อีกวิธีการหนึ่งคือการใช้ฟังก์ชัน na_if() จาก library-dplyr เพื่อเปลี่ยนค่าที่ไม่ต้องการให้เป็น missing value

mutate(teacher_salary_data,
       discipline = na_if(discipline, "N/A"),
       yrs_since_phd = na_if(yrs_since_phd, -999),
       salary = na_if(salary, -999))

# A tibble: 397 × 7
   teacher_id teacher_position discipline yrs_since_phd yrs_service gender
        <dbl> <chr>            <chr>              <dbl>       <dbl> <chr> 
 1          1 Prof             B                     19          18 Male  
 2          2 Prof             B                     20          16 Male  
 3          3 AsstProf         B                      4           3 Male  
 4          4 Prof             B                     45          39 Male  
 5          5 Prof             B                     40          41 Male  
 6          6 AssocProf        <NA>                   6           6 Male  
 7          7 Prof             B                     30          23 Male  
 8          8 Prof             B                     45          45 Male  
 9          9 Prof             B                     21          20 Male  
10         10 Prof             B                     18          18 Female
# ℹ 387 more rows
# ℹ 1 more variable: salary <dbl>

การลบ Missing Value ออกจากชุดข้อมูล

teacher_salary_data <- read_csv("TeacherSalaryData.csv",
         na = c("N/A", "-999"))
na.omit(teacher_salary_data)

# A tibble: 384 × 7
    ...1 `teacher position` discipline yrs.since.phd yrs.service sex    salary
   <dbl> <chr>              <chr>              <dbl>       <dbl> <chr>   <dbl>
 1     1 Prof               B                     19          18 Male   139750
 2     2 Prof               B                     20          16 Male   173200
 3     3 AsstProf           B                      4           3 Male    79750
 4     4 Prof               B                     45          39 Male   115000
 5     5 Prof               B                     40          41 Male   141500
 6     7 Prof               B                     30          23 Male   175000
 7     8 Prof               B                     45          45 Male   147765
 8     9 Prof               B                     21          20 Male   119250
 9    10 Prof               B                     18          18 Female 129000
10    11 AssocProf          B                     12           8 Male   119800
# ℹ 374 more rows
…
TeacherSalaryData.csv

เงินเดือนของอาจารย์สาขาวิชา A แตกต่างจากสาขาวิชา B อย่างไร?

teacher_salary_data

# A tibble: 384 × 7
   teacher_id teacher_position discipline     yrs_since_phd yrs_service gender salary
        <dbl> <ord>            <fct>                  <dbl>       <dbl> <fct>   <dbl>
 1          1 Prof             Social_Science            19          18 Male   139750
 2          2 Prof             Social_Science            20          16 Male   173200
 3          3 AsstProf         Social_Science             4           3 Male    79750
 4          4 Prof             Social_Science            45          39 Male   115000
 5          5 Prof             Social_Science            40          41 Male   141500
 6          7 Prof             Social_Science            30          23 Male   175000
 7          8 Prof             Social_Science            45          45 Male   147765
 8          9 Prof             Social_Science            21          20 Male   119250
 9         10 Prof             Social_Science            18          18 Female 129000
10         11 AssocProf        Social_Science            12           8 Male   119800
# ℹ 374 more rows
…
“Happy families are all alike; every unhappy family is unhappy in its own way.”

— Leo Tolstoy

“Tidy datasets are all alike, but every messy dataset is messy in its own way.”

— Hadley Wickham

Tidy Data

ข้อมูลแต่ละชุดสามารถ represent ในรูปแบบตารางได้หลายลักษณะ

table1

# A tibble: 384 × 7
   teacher_id teacher_position discipline     yrs_since_phd yrs_service gender
        <dbl> <ord>            <fct>                  <dbl>       <dbl> <fct> 
 1          1 Prof             Social_Science            19          18 Male  
 2          2 Prof             Social_Science            20          16 Male  
 3          3 AsstProf         Social_Science             4           3 Male  
 4          4 Prof             Social_Science            45          39 Male  
 5          5 Prof             Social_Science            40          41 Male  
 6          7 Prof             Social_Science            30          23 Male  
 7          8 Prof             Social_Science            45          45 Male  
 8          9 Prof             Social_Science            21          20 Male  
 9         10 Prof             Social_Science            18          18 Female
10         11 AssocProf        Social_Science            12           8 Male  
# ℹ 374 more rows
# ℹ 1 more variable: salary <dbl>

Tidy Data

ข้อมูลแต่ละชุดสามารถ represent ในรูปแบบตารางได้หลายลักษณะ

table2

# A tibble: 1,152 × 6
   teacher_id teacher_position discipline     gender variable       value
        <dbl> <ord>            <fct>          <fct>  <fct>          <dbl>
 1          1 Prof             Social_Science Male   yrs_since_phd     19
 2          1 Prof             Social_Science Male   yrs_service       18
 3          1 Prof             Social_Science Male   salary        139750
 4          2 Prof             Social_Science Male   yrs_since_phd     20
 5          2 Prof             Social_Science Male   yrs_service       16
 6          2 Prof             Social_Science Male   salary        173200
 7          3 AsstProf         Social_Science Male   yrs_since_phd      4
 8          3 AsstProf         Social_Science Male   yrs_service        3
 9          3 AsstProf         Social_Science Male   salary         79750
10          4 Prof             Social_Science Male   yrs_since_phd     45
# ℹ 1,142 more rows
…
นิสิตคิดว่า tidy data ของข้อมูลชุดนี้ควรมีลักษณะอย่างไร

Note: การนำเข้า MS Excel จะใช้ฟังก์ชัน read_excel() จาก library-readxl

read_excel(path, sheet, col_name = TRUE, col_types = NULL, na = " ")

excel_sheets(path) ใช้ตรวจสอบชื่อ sheet ในไฟล์ Excel

Tidying Data: ข้อมูลอยู่ในชื่อคอลัมน์

พิจารณาชุดข้อมูล billboard หากวัตถุประสงค์คือ การสำรวจแนวโน้มความนิยมของเพลงในแต่ละสัปดาห์ ชุดข้อมูลนี้เป็น tidy data หรือไม่

billboard

# A tibble: 317 × 79
   artist     track date.entered   wk1   wk2   wk3   wk4   wk5   wk6   wk7   wk8
   <chr>      <chr> <date>       <dbl> <dbl> <dbl> <dbl> <dbl> <dbl> <dbl> <dbl>
 1 2 Pac      Baby… 2000-02-26      87    82    72    77    87    94    99    NA
 2 2Ge+her    The … 2000-09-02      91    87    92    NA    NA    NA    NA    NA
 3 3 Doors D… Kryp… 2000-04-08      81    70    68    67    66    57    54    53
 4 3 Doors D… Loser 2000-10-21      76    76    72    69    67    65    55    59
 5 504 Boyz   Wobb… 2000-04-15      57    34    25    17    17    31    36    49
 6 98^0       Give… 2000-08-19      51    39    34    26    26    19     2     2
 7 A*Teens    Danc… 2000-07-08      97    97    96    95   100    NA    NA    NA
 8 Aaliyah    I Do… 2000-01-29      84    62    51    41    38    35    35    38
 9 Aaliyah    Try … 2000-03-18      59    53    38    28    21    18    16    14
10 Adams, Yo… Open… 2000-08-26      76    76    74    69    68    67    61    58
# ℹ 307 more rows
# ℹ 68 more variables: wk9 <dbl>, wk10 <dbl>, wk11 <dbl>, wk12 <dbl>,
#   wk13 <dbl>, wk14 <dbl>, wk15 <dbl>, wk16 <dbl>, wk17 <dbl>, wk18 <dbl>,
#   wk19 <dbl>, wk20 <dbl>, wk21 <dbl>, wk22 <dbl>, wk23 <dbl>, wk24 <dbl>,
#   wk25 <dbl>, wk26 <dbl>, wk27 <dbl>, wk28 <dbl>, wk29 <dbl>, wk30 <dbl>,
#   wk31 <dbl>, wk32 <dbl>, wk33 <dbl>, wk34 <dbl>, wk35 <dbl>, wk36 <dbl>,
#   wk37 <dbl>, wk38 <dbl>, wk39 <dbl>, wk40 <dbl>, wk41 <dbl>, wk42 <dbl>, …
…
billboard |> 
  pivot_longer(
    cols = starts_with("wk"),
    names_to = "week",
    values_to = "rank"
  )

# A tibble: 24,092 × 5
   artist track                   date.entered week   rank
   <chr>  <chr>                   <date>       <chr> <dbl>
 1 2 Pac  Baby Don't Cry (Keep... 2000-02-26   wk1      87
 2 2 Pac  Baby Don't Cry (Keep... 2000-02-26   wk2      82
 3 2 Pac  Baby Don't Cry (Keep... 2000-02-26   wk3      72
 4 2 Pac  Baby Don't Cry (Keep... 2000-02-26   wk4      77
 5 2 Pac  Baby Don't Cry (Keep... 2000-02-26   wk5      87
 6 2 Pac  Baby Don't Cry (Keep... 2000-02-26   wk6      94
 7 2 Pac  Baby Don't Cry (Keep... 2000-02-26   wk7      99
 8 2 Pac  Baby Don't Cry (Keep... 2000-02-26   wk8      NA
 9 2 Pac  Baby Don't Cry (Keep... 2000-02-26   wk9      NA
10 2 Pac  Baby Don't Cry (Keep... 2000-02-26   wk10     NA
# ℹ 24,082 more rows
…
