2758688 ML PRIN APPLN - Modelling Process
…
ภายใต้ framework ของ tidymodels จะใช้ฟังก์ชันใน package parsnip เพื่อ fitting model ทำนายดังกล่าว package ดังกล่าว จุดเด่นของ parsnip คือถูกออกแบบมาเพื่อเป็น interface สำหรับ fit supervised learning model ที่มีรูปแบบการใช้คำสั่งเป็นไวยกรณ์แบบเดียว

(4) Prediction

ผู้วิเคราะห์สามารถนำโมเดลที่ผ่านการ train เรียบร้อยแล้วไปใช้หาค่าทำนาย โดยส่งผ่านโมเดลที่ train แล้ว (ในที่นี้คือ fit_lm) ไปยังฟังก์ชัน predict() ที่มีอาร์กิวเมนท์สำคัญคือ new_data ตัวอย่างด้านล่างแสดงนำ fit_lm ไปทำนายตัวแปร hwy ในชุดข้อมูลทดสอบ ผลลัพธ์ที่ได้จากการทำนายจะเป็นตารางแบบ tibble ที่แต่ละ row คือค่าทำนายของหน่วยข้อมูลใน row เดียวกันกับใน test_str ดังนี้

hwy_pred <- fit_lm %>%
              predict(new_data = test_str)
hwy_pred

# A tibble: 60 × 1
   .pred
   <dbl>
 1  28.9
 2  27.5
 3  20.9
 4  23.6
 5  19.6
 6  19.6
 7  24.9
 8  23.6
 9  20.9
10  20.9
# … with 50 more rows

เมื่อได้ค่าทำนายในชุดข้อมูลทดสอบมาแล้ว ขั้นตอนถัดไปคือการประเมินประสิทธิภาพของโมเดลทำนาย โดยทั่วไปผู้วิเคราะห์มักจะรวมค่าทำนายที่ได้ (ในที่นี้คือ hwy_pred) ไปไว้อยู่ภายในชุดข้อมูลทดสอบ การดำเนินการนี้สามารถทำได้หลายวิธีการขึ้นอยู่กับว่าถนัดจะดำเนินการแบบนี้ ในตัวอย่างนี้จะใช้ฟังก์ชัน bind_cols()

test_results <- test_str %>%
                  dplyr::select(hwy, cty) %>%
                  bind_cols(hwy_pred)
test_results

# A tibble: 60 × 3
     hwy   cty .pred
   <int> <int> <dbl>
 1    29    21  28.9
 2    28    20  27.5
 3    24    15  20.9
 4    25    17  23.6
 5    20    14  19.6
 6    17    14  19.6
 7    29    18  24.9
 8    24    17  23.6
 9    22    15  20.9
10    21    15  20.9
# … with 50 more rows
…
ในกรณีที่ต้องการนำการจัดการข้อมูลที่ train ไว้ในขั้นที่ 3 ไปใช้กับชุดข้อมูลอื่นเช่น salary_test สามารถเขียนคำสั่งได้ดังนี้

salary_test_baked <- salary_rec_prep %>% bake(new_data = salary_test)
salary_test_baked

# A tibble: 80 × 6
   rank     discipline yrs.since.phd yrs.service sex   salary
   <fct>    <fct>              <int>       <int> <fct>  <dbl>
 1 AsstProf B                      4           3 Male    4.90
 2 Prof     A                     36          31 Male    5.01
 3 AsstProf B                      5           3 Male    4.92
 4 AsstProf B                     11           0 Male    4.89
 5 Prof     B                     13           9 Male    5.07
 6 AsstProf B                      4           2 Male    4.90
 7 Prof     B                     40          27 Male    5.01
 8 Prof     B                     12          11 Male    5.04
 9 Prof     B                     16           9 Male    5.03
10 AsstProf B                      8           3 Male    4.88
# … with 70 more rows
…
