2758688 ML PRIN APPLN - Regularization
…
tidymodels workflow (ดัดแปลงจาก Mark Khun)

คำสั่งต่อไปนี้แสดงการปรับแต่ง hyperparameter ด้วย workflow ของ tidymodels ดังกล่าว

# create repeated 10-folds CV datasets
folds_data <- vfold_cv(data = train, 
                       v = 10, 
                       repeats = 3)
folds_data

#  10-fold cross-validation repeated 3 times 
# A tibble: 30 × 3
   splits           id      id2   
   <list>           <chr>   <chr> 
 1 <split [285/32]> Repeat1 Fold01
 2 <split [285/32]> Repeat1 Fold02
 3 <split [285/32]> Repeat1 Fold03
 4 <split [285/32]> Repeat1 Fold04
 5 <split [285/32]> Repeat1 Fold05
 6 <split [285/32]> Repeat1 Fold06
 7 <split [285/32]> Repeat1 Fold07
 8 <split [286/31]> Repeat1 Fold08
 9 <split [286/31]> Repeat1 Fold09
10 <split [286/31]> Repeat1 Fold10
# … with 20 more rows
…
Main Arguments:
  penalty = tune()
  mixture = 0

Computational engine: glmnet 

ผลลัพธ์ข้างต้นจะเห็นว่า workflow ช่วยรวบรวมส่วนของการ preprocessing และ modeling ให้อยู่ภายใต้ object เดียวกัน เมื่อสร้าง workflow เรียบร้อยแล้ว ขั้นตอนถัดไปคือการสร้าง grid ของ hyperparameters เพื่อใช้สำหรับการเฟ้นหาชุดของ hyperparameter ที่มีความเหมาะสมกล่าวคือทำให้ประสิทธิภาพการทำนายของโมเดลมีสูงที่สุด ดังที่ได้กล่าวในบทที่ 5 ว่าการกำหนด grid อาจทำได้สองวิธี วิธีการแรกคือการใช้ regular grid search ที่จะสร้าง grid จาก combination ของค่าที่เป็นไปได้ทั้งหมดของ hyperparameters ที่สนใจ การสร้าง grid ดังกล่าวสามารถทำได้หลายวิธีการ โดยใน tidymodels สามารถทำได้ด้วยฟังก์ชัน grid_regular() ของ package dial ดังตัวอย่างต่อไปนี้

p<-parameters(penalty(range=c(-100,100)))
regular_grid <- grid_regular(p, levels=50)
regular_grid

# A tibble: 50 × 1
     penalty
       <dbl>
 1 1   e-100
 2 1.21e- 96
 3 1.46e- 92
 4 1.76e- 88
 5 2.12e- 84
 6 2.56e- 80
 7 3.09e- 76
 8 3.73e- 72
 9 4.50e- 68
10 5.43e- 64
# … with 40 more rows
…
จากการทำ workflow ข้างต้นผู้วิเคราะห์สามารถเรียกดูผลการประเมินประสิทธิภาพของโมเดลทำนายที่คำนวณจากการทำ cross-validation โดยใช้ฟังก์ชัน collect_metric() ฟังก์ชันนี้มีอาร์กิวเมนท์ที่ควรรู้จักคือ summarize ค่าเริ่มต้นจะกำหนดให้เป็น TRUE ผลลัพธ์ที่ได้จะเป็นค่าสรุปประสิทธิภาพการทำนายของโมเดลในแต่ละ grid แต่ถ้ากำหนดให้เป็น FALSE ผลลัพธ์ที่ได้จะลงรายละเอียดของประสิทธิภาพเป็นราย validation dataset

tune_regular %>% 
  collect_metrics(summarize = TRUE)

# A tibble: 150 × 7
     penalty .metric .estimator      mean     n  std_err .config              
       <dbl> <chr>   <chr>          <dbl> <int>    <dbl> <chr>                
 1 1   e-100 mae     standard   16787.       30 530.     Preprocessor1_Model01
 2 1   e-100 rmse    standard   22448.       30 676.     Preprocessor1_Model01
 3 1   e-100 rsq     standard       0.452    30   0.0231 Preprocessor1_Model01
 4 1.21e- 96 mae     standard   16787.       30 530.     Preprocessor1_Model02
 5 1.21e- 96 rmse    standard   22448.       30 676.     Preprocessor1_Model02
 6 1.21e- 96 rsq     standard       0.452    30   0.0231 Preprocessor1_Model02
 7 1.46e- 92 mae     standard   16787.       30 530.     Preprocessor1_Model03
 8 1.46e- 92 rmse    standard   22448.       30 676.     Preprocessor1_Model03
 9 1.46e- 92 rsq     standard       0.452    30   0.0231 Preprocessor1_Model03
10 1.76e- 88 mae     standard   16787.       30 530.     Preprocessor1_Model04
# … with 140 more rows
…
tune_random %>% 
  collect_metrics(summarize = FALSE)

# A tibble: 900 × 7
   id      id2     penalty .metric .estimator .estimate .config              
   <chr>   <chr>     <dbl> <chr>   <chr>          <dbl> <chr>                
 1 Repeat1 Fold01 5.06e-94 rsq     standard       0.415 Preprocessor1_Model01
 2 Repeat1 Fold01 5.06e-94 rmse    standard   28146.    Preprocessor1_Model01
 3 Repeat1 Fold01 5.06e-94 mae     standard   19368.    Preprocessor1_Model01
 4 Repeat1 Fold02 5.06e-94 rsq     standard       0.427 Preprocessor1_Model01
 5 Repeat1 Fold02 5.06e-94 rmse    standard   26588.    Preprocessor1_Model01
 6 Repeat1 Fold02 5.06e-94 mae     standard   20808.    Preprocessor1_Model01
 7 Repeat1 Fold03 5.06e-94 rsq     standard       0.664 Preprocessor1_Model01
 8 Repeat1 Fold03 5.06e-94 rmse    standard   16585.    Preprocessor1_Model01
 9 Repeat1 Fold03 5.06e-94 mae     standard   11946.    Preprocessor1_Model01
10 Repeat1 Fold04 5.06e-94 rsq     standard       0.261 Preprocessor1_Model01
# … with 890 more rows

นอกจากนี้ยังมีฟังก์ชัน collect_predictions() ที่สามารถใช้เรียกค่าทำนายของตัวแปรตามที่ได้จากแต่ละ resample และชุดของ hyperparameter ภายใน grid การใช้ฟังก์ชันนี้ทำในทำนองเดียวกับ collect_metrics() ดังตัวอย่างต่อไปนี้

tune_regular %>%
  collect_predictions()

# A tibble: 47,550 × 7
   id      id2      .pred  .row penalty salary .config              
   <chr>   <chr>    <dbl> <int>   <dbl>  <int> <chr>                
 1 Repeat1 Fold01 121850.     3  1e-100 148750 Preprocessor1_Model01
 2 Repeat1 Fold01 126897.    15  1e-100 142467 Preprocessor1_Model01
 3 Repeat1 Fold01  76196.    26  1e-100  74000 Preprocessor1_Model01
 4 Repeat1 Fold01 117779.    29  1e-100 168500 Preprocessor1_Model01
 5 Repeat1 Fold01  85897.    35  1e-100  91300 Preprocessor1_Model01
 6 Repeat1 Fold01 124811.    63  1e-100 183800 Preprocessor1_Model01
 7 Repeat1 Fold01 129939.    70  1e-100 106639 Preprocessor1_Model01
 8 Repeat1 Fold01 134797.    72  1e-100 146856 Preprocessor1_Model01
 9 Repeat1 Fold01 118182.    78  1e-100 103700 Preprocessor1_Model01
10 Repeat1 Fold01 117129.    98  1e-100 108262 Preprocessor1_Model01
# … with 47,540 more rows
…
