2758688 ML PRIN APPLN - Random Forest
…
tuning_results %>% collect_metrics(summarize = TRUE)

# A tibble: 57 × 8
    mtry min_n .metric .estimator  mean     n std_err .config              
   <int> <int> <chr>   <chr>      <dbl> <int>   <dbl> <chr>                
 1     5    18 roc_auc binary     0.859    50 0.0113  Preprocessor1_Model01
 2     5    18 sens    binary     0.688    50 0.0205  Preprocessor1_Model01
 3     5    18 spec    binary     0.955    50 0.00658 Preprocessor1_Model01
 4     1    21 roc_auc binary     0.877    50 0.0100  Preprocessor1_Model02
 5     1    21 sens    binary     0.669    50 0.0199  Preprocessor1_Model02
 6     1    21 spec    binary     0.964    50 0.00570 Preprocessor1_Model02
 7     4    14 roc_auc binary     0.856    50 0.0117  Preprocessor1_Model03
 8     4    14 sens    binary     0.708    50 0.0195  Preprocessor1_Model03
 9     4    14 spec    binary     0.950    50 0.00827 Preprocessor1_Model03
10     4    33 roc_auc binary     0.864    50 0.0110  Preprocessor1_Model04
# … with 47 more rows
…
   mtry min_n
40    5    45
41    1    50
42    2    50
43    3    50
44    4    50
45    5    50

crossing(
  mtry = 1:5,
  min_n = seq(10,50,5)
)

# A tibble: 45 × 2
    mtry min_n
   <int> <dbl>
 1     1    10
 2     1    15
 3     1    20
 4     1    25
 5     1    30
 6     1    35
 7     1    40
 8     1    45
 9     1    50
10     2    10
# … with 35 more rows
…
i 1 of 2 tuning:     norm_reg_logit

✔ 1 of 2 tuning:     norm_reg_logit (54.6s)

i 2 of 2 tuning:     base_cart

✔ 2 of 2 tuning:     base_cart (51.3s)

rank_results(all_tune)

# A tibble: 160 × 9
   wflow_id  .config             .metric  mean std_err     n prepr…¹ model  rank
   <chr>     <chr>               <chr>   <dbl>   <dbl> <int> <chr>   <chr> <int>
 1 base_cart Preprocessor1_Mode… accura… 0.901  0.0142    10 recipe  deci…     1
 2 base_cart Preprocessor1_Mode… roc_auc 0.923  0.0203    10 recipe  deci…     1
 3 base_cart Preprocessor1_Mode… sens    0.891  0.0132    10 recipe  deci…     1
 4 base_cart Preprocessor1_Mode… spec    0.909  0.0215    10 recipe  deci…     1
 5 base_cart Preprocessor1_Mode… accura… 0.901  0.0142    10 recipe  deci…     2
 6 base_cart Preprocessor1_Mode… roc_auc 0.932  0.0184    10 recipe  deci…     2
 7 base_cart Preprocessor1_Mode… sens    0.896  0.0143    10 recipe  deci…     2
 8 base_cart Preprocessor1_Mode… spec    0.905  0.0243    10 recipe  deci…     2
 9 base_cart Preprocessor1_Mode… accura… 0.901  0.0142    10 recipe  deci…     3
10 base_cart Preprocessor1_Mode… roc_auc 0.932  0.0184    10 recipe  deci…     3
# … with 150 more rows, and abbreviated variable name ¹​preprocessor
…
simple_cart_results %>% collect_metrics(summarise = T)

# A tibble: 80 × 8
   cost_complexity min_n .metric  .estimator  mean     n std_err .config        
             <dbl> <int> <chr>    <chr>      <dbl> <int>   <dbl> <chr>          
 1    0.00000300       9 accuracy binary     0.883    10  0.0126 Preprocessor1_…
 2    0.00000300       9 roc_auc  binary     0.908    10  0.0254 Preprocessor1_…
 3    0.00000300       9 sens     binary     0.876    10  0.0125 Preprocessor1_…
 4    0.00000300       9 spec     binary     0.887    10  0.0208 Preprocessor1_…
 5    0.0000000334    13 accuracy binary     0.893    10  0.0158 Preprocessor1_…
 6    0.0000000334    13 roc_auc  binary     0.914    10  0.0225 Preprocessor1_…
 7    0.0000000334    13 sens     binary     0.891    10  0.0132 Preprocessor1_…
 8    0.0000000334    13 spec     binary     0.894    10  0.0225 Preprocessor1_…
 9    0.000000211     28 accuracy binary     0.891    10  0.0159 Preprocessor1_…
10    0.000000211     28 roc_auc  binary     0.936    10  0.0188 Preprocessor1_…
# … with 70 more rows
…
