2758688 ML PRIN APPLN - Text Analytics
…
ผลการวิเคราะห์ข้างต้นแสดงให้เห็นว่าทั้งสองโมเดลสามารถทำนายได้อยู่ในระดับที่ดีขึ้นไป โดย random forest เป็นโมเดลที่ทำนายได้ดีมากที่สุด

result %>%
  collect_metrics() %>%
  filter(.metric == "roc_auc") %>%
  arrange(desc(mean))

# A tibble: 100 × 9
   wflow_id            .config preproc model .metric .esti…¹  mean     n std_err
   <chr>               <chr>   <chr>   <chr> <chr>   <chr>   <dbl> <int>   <dbl>
 1 recipe_logistic_reg Prepro… recipe  logi… roc_auc binary      1    30       0
 2 recipe_logistic_reg Prepro… recipe  logi… roc_auc binary      1    30       0
 3 recipe_logistic_reg Prepro… recipe  logi… roc_auc binary      1    30       0
 4 recipe_logistic_reg Prepro… recipe  logi… roc_auc binary      1    30       0
 5 recipe_logistic_reg Prepro… recipe  logi… roc_auc binary      1    30       0
 6 recipe_logistic_reg Prepro… recipe  logi… roc_auc binary      1    30       0
 7 recipe_logistic_reg Prepro… recipe  logi… roc_auc binary      1    30       0
 8 recipe_logistic_reg Prepro… recipe  logi… roc_auc binary      1    30       0
 9 recipe_logistic_reg Prepro… recipe  logi… roc_auc binary      1    30       0
10 recipe_logistic_reg Prepro… recipe  logi… roc_auc binary      1    30       0
# … with 90 more rows, and abbreviated variable name ¹​.estimator
…
