Missing value analysis
…
ตารางวิเคราะห์ค่าสูญหายอาจจำแนกเป็นสองประเภท คือตารางวิเคราะห์ค่าสูญหายตามคอลัมน์ และตามแถว ดังนี้

library(naniar)
onlinelearning_data <- read_csv("/Users/choat/Downloads/onlinelearning_miss.csv")
## ภาพรวม
miss_prop_summary(onlinelearning_data)

# A tibble: 1 × 3
      df   var  case
   <dbl> <dbl> <dbl>
1 0.0194  0.58 0.732

miss_var_summary(onlinelearning_data)

# A tibble: 50 × 3
   variable            n_miss pct_miss
   <chr>                <int>    <num>
 1 climate.online1         97      9.7
 2 climate.onsite2         88      8.8
 3 climate.online3         87      8.7
 4 climate.onsite3         80      8  
 5 climate.onsite1         72      7.2
 6 climate.online2         70      7  
 7 computer                29      2.9
 8 interaction.online1     27      2.7
 9 interaction.onsite1     27      2.7
10 outcome.onsite3         26      2.6
# ℹ 40 more rows
…
miss_case_summary(onlinelearning_data)

# A tibble: 1,000 × 3
    case n_miss pct_miss
   <int>  <int>    <dbl>
 1     5      2        4
 2     6      2        4
 3     8      2        4
 4     9      2        4
 5    11      2        4
 6    17      2        4
 7    20      2        4
 8    22      2        4
 9    23      2        4
10    27      2        4
# ℹ 990 more rows
…
missing_data

# A tibble: 387 × 7
     ach learning_performance ontime_class engage      practice       
   <dbl>                <dbl> <chr>        <chr>       <chr>          
 1 52.2                  32.7 used to late no engage   do practice    
 2 30.8                  10.7 used to late much engage do not praction
 3 39.6                  28   never late   much engage do not praction
 4 56.0                  52.7 used to late much engage do practice    
 5 31.8                  15.6 used to late much engage do not praction
 6 70.5                  88.2 used to late much engage do practice    
 7 21.2                  18.7 used to late much engage do not praction
 8  9.96                 14.2 used to late much engage do not praction
 9 65.0                  68.4 used to late much engage do not praction
10 61.4                  55.1 used to late much engage do practice    
# ℹ 377 more rows
# ℹ 2 more variables: learning_performance_mar <dbl>,
#   learning_performance_mnar <dbl>
…
