Data Analysis I: Compare Means
…
\

H_1:  {1957} > {1952} $$ ### 2.3 การวิเคราะห์

ส่วนแรกเป็นการวิเคราะห์ด้วยสถิติพื้นฐาน

use_data <- filtered_data %>% 
  select(-pop, -lifeExp) %>% 
  pivot_wider(names_from = year, values_from = gdpPercap,
              names_prefix = "gdp_year_") %>% 
  mutate(gdp_change = gdp_year_1957 - gdp_year_1952)
use_data

# A tibble: 142 × 5
   country     continent gdp_year_1952 gdp_year_1957 gdp_change
   <fct>       <fct>             <dbl>         <dbl>      <dbl>
 1 Afghanistan Asia               779.          821.       41.4
 2 Albania     Europe            1601.         1942.      341. 
 3 Algeria     Africa            2449.         3014.      565. 
 4 Angola      Africa            3521.         3828.      307. 
 5 Argentina   Americas          5911.         6857.      946. 
 6 Australia   Oceania          10040.        10950.      910. 
 7 Austria     Europe            6137.         8843.     2706. 
 8 Bahrain     Asia              9867.        11636.     1769. 
 9 Bangladesh  Asia               684.          662.      -22.6
10 Belgium     Europe            8343.         9715.     1372. 
# ℹ 132 more rows
…
