ch6_textvisualization
…
Attaching package: 'dplyr'

The following objects are masked from 'package:stats':

    filter, lag

The following objects are masked from 'package:base':

    intersect, setdiff, setequal, union

thesis_data <- read_excel("/Users/siwachoat/Library/CloudStorage/OneDrive-ChulalongkornUniversity/Documents/เอกสารประกอบการสอน/2758686/66:1/book/datavis_book/data_AJ suchada.xlsx")
thesis_data

# A tibble: 55 × 26
    code thesisnameTH thesisnameEN name  surname depart   edu advisor co_advisor
   <dbl> <chr>        <chr>        <chr> <chr>   <chr>  <dbl> <chr>   <chr>     
 1     1 การเปรียบเทีย… A comparisi… สมถวิล วิจิตรวร… การวัด…     2 ศิริชัย ก… สุชาดา บวร…
 2     2 ปัจจัยที่ส่งผลต่อ… Factors aff… พัชรพร เทอดธร… วิจัยกา…     1 สุชาดา … <NA>      
 3     3 การพัฒนาและต… Development… อภิรดี  ปราสาท… วิธีวิทย…     2 สุชาดา … วรรณี แกมเ…
 4     4 ผลการวิเคราะ… Results of … อาภรณ์ พลเสน   วิจัยกา…     1 สุชาดา … สิริพันธุ์ สุวร…
 5     5 ปัจจัยจำแนกกา… Factors dis… กุสุมา  สารดี    วิจัยกา…     1 สุชาดา … วรรณี แกมเ…
 6     6 การพัฒนาโมเด… The develop… มาลัย… นนท์แก้ว  วิจัยกา…     1 สุชาดา … ศิริเดช สุชีวะ
 7     7 การเปรียบเทีย… A compariso… ศิริรัตน์ ศิริวิโรจ… วิจัยกา…     1 สุชาดา … สิริพันธุ์ สุวร…
 8     8 ความแกร่งของ… Robustness … กุณฑีรา อารีกุล   สถิติกา…     1 สุชาดา … วรรณี แกมเ…
 9     9 ความแกร่งของ… Robustness … สามา… พันคง    สถิติกา…     1 สุชาดา … วรรณี แกมเ…
10    10 การพัฒนาโมเด… DEVELOPMENT… หนึ่งฤ… มะลาไวย์ วิจัยกา…     1 สุชาดา … <NA>      
# ℹ 45 more rows
# ℹ 17 more variables: commitee1 <chr>, commitee2 <chr>, commitee3 <chr>,
#   externalCommittee <chr>, year <dbl>, absTH <chr>, absEN <chr>,
#   keyEN1 <chr>, keyEN2 <chr>, keyEN3 <chr>, keyEN4 <chr>, keyEN5 <chr>,
#   software1 <chr>, software2 <chr>, software3 <chr>, DV <chr>, mainStat <chr>
…
กลับมาที่คำถามหลัก …

อ.สุชาดาทำงานร่วมกับอาจารย์ท่านใดบ้าง ลักษณะความสัมพันธ์เป็นอย่างไร?

thesis_data

# A tibble: 55 × 26
    code thesisnameTH thesisnameEN name  surname depart   edu advisor co_advisor
   <dbl> <chr>        <chr>        <chr> <chr>   <chr>  <dbl> <chr>   <chr>     
 1     1 การเปรียบเทีย… A comparisi… สมถวิล วิจิตรวร… การวัด…     2 ศิริชัย ก… สุชาดา บวร…
 2     2 ปัจจัยที่ส่งผลต่อ… Factors aff… พัชรพร เทอดธร… วิจัยกา…     1 สุชาดา … <NA>      
 3     3 การพัฒนาและต… Development… อภิรดี  ปราสาท… วิธีวิทย…     2 สุชาดา … วรรณี แกมเ…
 4     4 ผลการวิเคราะ… Results of … อาภรณ์ พลเสน   วิจัยกา…     1 สุชาดา … สิริพันธุ์ สุวร…
 5     5 ปัจจัยจำแนกกา… Factors dis… กุสุมา  สารดี    วิจัยกา…     1 สุชาดา … วรรณี แกมเ…
 6     6 การพัฒนาโมเด… The develop… มาลัย… นนท์แก้ว  วิจัยกา…     1 สุชาดา … ศิริเดช สุชีวะ
 7     7 การเปรียบเทีย… A compariso… ศิริรัตน์ ศิริวิโรจ… วิจัยกา…     1 สุชาดา … สิริพันธุ์ สุวร…
 8     8 ความแกร่งของ… Robustness … กุณฑีรา อารีกุล   สถิติกา…     1 สุชาดา … วรรณี แกมเ…
 9     9 ความแกร่งของ… Robustness … สามา… พันคง    สถิติกา…     1 สุชาดา … วรรณี แกมเ…
10    10 การพัฒนาโมเด… DEVELOPMENT… หนึ่งฤ… มะลาไวย์ วิจัยกา…     1 สุชาดา … <NA>      
# ℹ 45 more rows
# ℹ 17 more variables: commitee1 <chr>, commitee2 <chr>, commitee3 <chr>,
#   externalCommittee <chr>, year <dbl>, absTH <chr>, absEN <chr>,
#   keyEN1 <chr>, keyEN2 <chr>, keyEN3 <chr>, keyEN4 <chr>, keyEN5 <chr>,
#   software1 <chr>, software2 <chr>, software3 <chr>, DV <chr>, mainStat <chr>
…
