2758688 ML PRIN APPLN - Midterm Examination
…
การตรวจสอบค่าสูญหายสามารถทำได้หลายวิธีการ ตั้งแต่การใช้ฟังก์ชันทางสถิติพื้นฐานของ R ใช้ทัศนภาพข้อมูล รวมไปถึงมี package เฉพาะหลายตัวที่ถูกพัฒนาขึ้นเพื่อแก้ปัญหาดังกล่าว เนื้อหาส่วนนี้จะใช้ package naniar

#install.packages("naniar")
library(naniar)

ภายในชุดข้อมูลมี missing values เกิดขึ้นมั้ย?

ฟังก์ชันง่าย ๆ สำหรับสำรวจค่าสูญหาย เช่น miss_var_summary() หรือ miss_var_table() เพื่อสำรวจค่าสูญหายในตัวแปร หรือ miss_case_summary() หรือ miss_case_table() เพื่อสำรวจค่าสูญหายในหน่วยข้อมูล ดังผลการวิเคราะห์ด้านล่าง

จากผลการวิเคราะห์จะเห็นว่ามีตัวแปรจำนวน 3 ตัวในชุดข้อมูลที่พบค่าสูญหาย ได้แก่ traveltime, fam_relation และ PreTest โดยพบค่าสูญหายในแต่ละตัวแปรคิดเป็นร้อยละ 14.2, 12.5 และ 11.3 ตามลำดับ นอกจากนี้เมื่อพิจารณาในมิติของหน่วยข้อมูลพบว่า รูปแบบการสูญหายของข้อมูลในหน่วยข้อมูลมีแบบเดียวคือ มีการสูญหายหนึ่งตัวแปรต่อหน่วยข้อมูล โดยมีหน่วยข้อมูลที่พบค่าสูญหายทั้งหมด 396 หน่วย คิดเป็นร้อยละ 37.93

miss_var_summary(dat)

# A tibble: 29 × 3
   variable     n_miss pct_miss
   <chr>         <int>    <dbl>
 1 traveltime      148     14.2
 2 fam_relation    130     12.5
 3 PreTest         118     11.3
 4 school            0      0  
 5 gender            0      0  
 6 age               0      0  
 7 location          0      0  
 8 famsize           0      0  
 9 ParentStat        0      0  
10 MomEdu            0      0  
# … with 19 more rows
…
miss_var_summary(dat_preproc)

# A tibble: 29 × 3
   variable     n_miss pct_miss
   <chr>         <int>    <dbl>
 1 traveltime      148     14.2
 2 fam_relation    130     12.5
 3 PreTest         118     11.3
 4 school            0      0  
 5 gender            0      0  
 6 age               0      0  
 7 location          0      0  
 8 famsize           0      0  
 9 ParentStat        0      0  
10 MomEdu            0      0  
# … with 19 more rows
…
na<-function(x){
  y<-ifelse(x=="NA",1,0)
  return(y)
}
missing <- dat_preproc %>% 
  bind_shadow() %>%
  dplyr::select(contains("NA")) %>%
  mutate_all(na)
missing %>% dplyr::select(traveltime_NA, fam_relation_NA, PreTest_NA) 

# A tibble: 1,044 × 3
   traveltime_NA fam_relation_NA PreTest_NA
           <dbl>           <dbl>      <dbl>
 1             0               1          0
 2             0               0          0
 3             1               0          0
 4             1               0          0
 5             0               0          0
 6             0               1          0
 7             0               1          0
 8             0               0          0
 9             1               0          0
10             0               1          0
# … with 1,034 more rows
…
fold<-vfold_cv(temp, v=5, repeats=3, strata = Ach_class)
library(doMC)
registerDoMC(cores=15)
eval_metrics <- metric_set(roc_auc, sens, spec)
result_smote<-wfset %>%
  workflow_map(resamples=fold,
               grid=50,
               metrics = eval_metrics)
result_smote %>% collect_metrics(summarise=T) %>%
  filter(.metric %in% c("roc_auc")) %>%
  arrange(desc(mean)) %>%
  dplyr::select(wflow_id, .metric, mean, n, std_err)

# A tibble: 100 × 5
   wflow_id                .metric  mean     n std_err
   <chr>                   <chr>   <dbl> <int>   <dbl>
 1 recipe_2_multinom_reg_2 roc_auc 0.920    15 0.00519
 2 recipe_2_multinom_reg_2 roc_auc 0.918    15 0.00471
 3 recipe_2_multinom_reg_2 roc_auc 0.918    15 0.00572
 4 recipe_2_multinom_reg_2 roc_auc 0.917    15 0.00496
 5 recipe_2_multinom_reg_2 roc_auc 0.913    15 0.00627
 6 recipe_1_multinom_reg_1 roc_auc 0.907    15 0.00499
 7 recipe_1_multinom_reg_1 roc_auc 0.905    15 0.00581
 8 recipe_2_multinom_reg_2 roc_auc 0.904    15 0.00726
 9 recipe_1_multinom_reg_1 roc_auc 0.902    15 0.00749
10 recipe_1_multinom_reg_1 roc_auc 0.901    15 0.00703
# … with 90 more rows

result_smote %>% collect_metrics(summarise=T) %>%
  filter(.metric %in% c("sens")) %>%
  arrange(desc(mean)) %>%
  dplyr::select(wflow_id, .metric, mean, n, std_err)

# A tibble: 100 × 5
   wflow_id                .metric  mean     n std_err
   <chr>                   <chr>   <dbl> <int>   <dbl>
 1 recipe_2_multinom_reg_2 sens    0.791    15 0.0102 
 2 recipe_2_multinom_reg_2 sens    0.789    15 0.00819
 3 recipe_2_multinom_reg_2 sens    0.782    15 0.00700
 4 recipe_2_multinom_reg_2 sens    0.775    15 0.0101 
 5 recipe_2_multinom_reg_2 sens    0.770    15 0.0134 
 6 recipe_2_multinom_reg_2 sens    0.754    15 0.0139 
 7 recipe_2_multinom_reg_2 sens    0.743    15 0.0173 
 8 recipe_2_multinom_reg_2 sens    0.740    15 0.0179 
 9 recipe_2_multinom_reg_2 sens    0.722    15 0.0157 
10 recipe_2_multinom_reg_2 sens    0.712    15 0.0154 
# … with 90 more rows
…
