Practical Insight: Doing Data Science in Education with R - Basic Regression Example
…
train_result |> 
  rank_results() 

# A tibble: 62 × 9
   wflow_id      .config  .metric    mean std_err     n preprocessor model  rank
   <chr>         <chr>    <chr>     <dbl>   <dbl> <int> <chr>        <chr> <int>
 1 rec_noint_knn Preproc… rmse    2.28e+4 6.44e+2    15 recipe       near…     1
 2 rec_noint_knn Preproc… rsq     4.55e-1 2.14e-2    15 recipe       near…     1
 3 rec_noint_knn Preproc… rmse    2.28e+4 6.59e+2    15 recipe       near…     2
 4 rec_noint_knn Preproc… rsq     4.55e-1 2.22e-2    15 recipe       near…     2
 5 rec_noint_knn Preproc… rmse    2.28e+4 6.61e+2    15 recipe       near…     3
 6 rec_noint_knn Preproc… rsq     4.54e-1 2.14e-2    15 recipe       near…     3
 7 rec_noint_knn Preproc… rmse    2.28e+4 6.46e+2    15 recipe       near…     4
 8 rec_noint_knn Preproc… rsq     4.52e-1 2.10e-2    15 recipe       near…     4
 9 rec_noint_knn Preproc… rmse    2.29e+4 6.45e+2    15 recipe       near…     5
10 rec_noint_knn Preproc… rsq     4.50e-1 2.06e-2    15 recipe       near…     5
# ℹ 52 more rows

train_result |> 
  collect_metrics() |> 
  filter(.metric == "rsq") |> 
  arrange(desc(mean))

# A tibble: 31 × 9
   wflow_id      .config    preproc model .metric .estimator  mean     n std_err
   <chr>         <chr>      <chr>   <chr> <chr>   <chr>      <dbl> <int>   <dbl>
 1 rec_noint_knn Preproces… recipe  near… rsq     standard   0.455    15  0.0214
 2 rec_noint_knn Preproces… recipe  near… rsq     standard   0.455    15  0.0222
 3 rec_noint_knn Preproces… recipe  near… rsq     standard   0.454    15  0.0214
 4 rec_noint_knn Preproces… recipe  near… rsq     standard   0.452    15  0.0210
 5 rec_noint_knn Preproces… recipe  near… rsq     standard   0.450    15  0.0206
 6 rec_noint_knn Preproces… recipe  near… rsq     standard   0.446    15  0.0217
 7 rec_noint_knn Preproces… recipe  near… rsq     standard   0.440    15  0.0218
 8 rec_int_ridge Preproces… recipe  line… rsq     standard   0.440    15  0.0222
 9 rec_int_ridge Preproces… recipe  line… rsq     standard   0.440    15  0.0222
10 rec_int_ridge Preproces… recipe  line… rsq     standard   0.440    15  0.0222
# ℹ 21 more rows
…
