Single Learning (cont.)
…
## -- explore lda

tuned_results_wfset %>% 
  extract_workflow_set_result(id = "base_rec_lda_lda_mda") %>% 
  collect_metrics() %>% 
  filter(.metric == "roc_auc") %>%
  arrange(desc(mean))

# A tibble: 50 × 7
        penalty .metric .estimator  mean     n std_err .config              
          <dbl> <chr>   <chr>      <dbl> <int>   <dbl> <chr>                
 1 0.617        roc_auc binary     0.810    15  0.0189 Preprocessor1_Model25
 2 0.654        roc_auc binary     0.810    15  0.0189 Preprocessor1_Model35
 3 0.00771      roc_auc binary     0.810    15  0.0189 Preprocessor1_Model01
 4 0.000000662  roc_auc binary     0.810    15  0.0189 Preprocessor1_Model02
 5 0.0000000430 roc_auc binary     0.810    15  0.0189 Preprocessor1_Model03
 6 0.00000101   roc_auc binary     0.810    15  0.0189 Preprocessor1_Model04
 7 0.0000150    roc_auc binary     0.810    15  0.0189 Preprocessor1_Model05
 8 0.0000000836 roc_auc binary     0.810    15  0.0189 Preprocessor1_Model06
 9 0.000678     roc_auc binary     0.810    15  0.0189 Preprocessor1_Model07
10 0.0000231    roc_auc binary     0.810    15  0.0189 Preprocessor1_Model08
# ℹ 40 more rows
…
## สามารถใช้ collect_metrics() กับ workflowset ได้เลย
all_tuned_results_wfset %>% collect_metrics() %>% 
  arrange(.config)

# A tibble: 1,510 × 9
   wflow_id         .config preproc model .metric .estimator  mean     n std_err
   <chr>            <chr>   <chr>   <chr> <chr>   <chr>      <dbl> <int>   <dbl>
 1 smote_rec_svm_l… Prepro… recipe  svm_… f_meas  binary     0.472    15  0.0224
 2 smote_rec_svm_l… Prepro… recipe  svm_… precis… binary     0.360    15  0.0179
 3 smote_rec_svm_l… Prepro… recipe  svm_… roc_auc binary     0.798    15  0.0157
 4 smote_rec_svm_l… Prepro… recipe  svm_… sens    binary     0.7      15  0.0413
 5 smote_rec_svm_l… Prepro… recipe  svm_… spec    binary     0.696    15  0.0191
 6 smote_rec_svm_p… Prepro… recipe  svm_… f_meas  binary     0.469    15  0.0109
 7 smote_rec_svm_p… Prepro… recipe  svm_… precis… binary     0.315    15  0.0106
 8 smote_rec_svm_p… Prepro… recipe  svm_… roc_auc binary     0.551    15  0.0905
 9 smote_rec_svm_p… Prepro… recipe  svm_… sens    binary     0.928    15  0.0179
10 smote_rec_svm_p… Prepro… recipe  svm_… spec    binary     0.501    15  0.0254
# ℹ 1,500 more rows
…
Extract workflow results from workflowset

all_tuned_results_wfset %>% 
  extract_workflow_set_result(id = "smote_rec_svm_poly") %>% 
  collect_metrics() %>% 
  filter(.metric == "roc_auc") %>%
  arrange(desc(mean))

# A tibble: 50 × 8
       cost scale_factor .metric .estimator  mean     n std_err .config         
      <dbl>        <dbl> <chr>   <chr>      <dbl> <int>   <dbl> <chr>           
 1  4.55      0.0000257  roc_auc binary     0.839    15  0.0130 Preprocessor1_M…
 2 17.9       0.0000115  roc_auc binary     0.839    15  0.0130 Preprocessor1_M…
 3 12.4       0.00000120 roc_auc binary     0.839    15  0.0130 Preprocessor1_M…
 4  5.97      0.0000218  roc_auc binary     0.839    15  0.0130 Preprocessor1_M…
 5  0.0121    0.0158     roc_auc binary     0.839    15  0.0129 Preprocessor1_M…
 6  0.0479    0.00493    roc_auc binary     0.839    15  0.0130 Preprocessor1_M…
 7  0.00106   0.0436     roc_auc binary     0.838    15  0.0129 Preprocessor1_M…
 8  8.92      0.0000511  roc_auc binary     0.838    15  0.0130 Preprocessor1_M…
 9  0.805     0.000831   roc_auc binary     0.836    15  0.0127 Preprocessor1_M…
10  2.23      0.000402   roc_auc binary     0.834    15  0.0122 Preprocessor1_M…
# ℹ 40 more rows

all_tuned_results_wfset %>% 
  extract_workflow_set_result(id = "adasyn_rec_svm_poly") %>% 
  collect_metrics() %>% 
  filter(.metric == "roc_auc") %>%
  arrange(desc(mean))

# A tibble: 50 × 8
       cost scale_factor .metric .estimator  mean     n std_err .config         
      <dbl>        <dbl> <chr>   <chr>      <dbl> <int>   <dbl> <chr>           
 1  4.55       0.0000257 roc_auc binary     0.836    15  0.0128 Preprocessor1_M…
 2 17.9        0.0000115 roc_auc binary     0.836    15  0.0128 Preprocessor1_M…
 3  5.97       0.0000218 roc_auc binary     0.836    15  0.0128 Preprocessor1_M…
 4  0.0479     0.00493   roc_auc binary     0.836    15  0.0129 Preprocessor1_M…
 5  0.0121     0.0158    roc_auc binary     0.836    15  0.0130 Preprocessor1_M…
 6  8.92       0.0000511 roc_auc binary     0.835    15  0.0127 Preprocessor1_M…
 7  0.00106    0.0436    roc_auc binary     0.835    15  0.0130 Preprocessor1_M…
 8  0.805      0.000831  roc_auc binary     0.833    15  0.0125 Preprocessor1_M…
 9  2.23       0.000402  roc_auc binary     0.832    15  0.0127 Preprocessor1_M…
10  0.166      0.00552   roc_auc binary     0.832    15  0.0126 Preprocessor1_M…
# ℹ 40 more rows

all_tuned_results_wfset %>% 
  extract_workflow_set_result(id = "smote_rec_svm_rbf") %>% 
  collect_metrics() %>% 
  filter(.metric == "roc_auc") %>%
  arrange(desc(mean))

# A tibble: 50 × 8
      cost  rbf_sigma .metric .estimator  mean     n std_err .config            
     <dbl>      <dbl> <chr>   <chr>      <dbl> <int>   <dbl> <chr>              
 1  2.99   0.00000728 roc_auc binary     0.839    15  0.0130 Preprocessor1_Mode…
 2  0.0200 0.000733   roc_auc binary     0.839    15  0.0130 Preprocessor1_Mode…
 3 12.4    0.00000340 roc_auc binary     0.839    15  0.0130 Preprocessor1_Mode…
 4  4.55   0.000102   roc_auc binary     0.838    15  0.0129 Preprocessor1_Mode…
 5  5.97   0.0000855  roc_auc binary     0.837    15  0.0126 Preprocessor1_Mode…
 6 17.9    0.0000421  roc_auc binary     0.836    15  0.0124 Preprocessor1_Mode…
 7  8.92   0.000220   roc_auc binary     0.830    15  0.0122 Preprocessor1_Mode…
 8  0.0479 0.0353     roc_auc binary     0.829    15  0.0125 Preprocessor1_Mode…
 9  0.805  0.00488    roc_auc binary     0.825    15  0.0120 Preprocessor1_Mode…
10  2.23   0.00218    roc_auc binary     0.824    15  0.0123 Preprocessor1_Mode…
# ℹ 40 more rows
…
