Social Network Visualization
…
4 การเตรียมข้อมูล

ลองสร้าง network เพื่อแสดงเครือข่ายของคำสำคัญของวิทยานิพนธ์ที่เป็นข้อมูลในชุดข้อมูล ก่อนจะทำการวิเคราะห์หรือสร้าง network เราจะต้องเตรียม igraph object ของชุดข้อมูลคำสำคัญนี้ก่อน

เราจะต้องออกแบบ network ของเราก่อนที่จะสร้าง igraph object การออกแบบนี้จะต้องสัมพันธ์กับคำถามวิจัยหรือวัตถุประสงค์ของการวิเคราะห์ ตัวอย่างแรกเราจะทำง่าย ๆ ก่อน โดยจำสร้างเครือข่ายของอาจารย์ที่ปรึกษา ที่ปรึกษาร่วม และกรรมการก่อน ข้อมูลนี้ไม่ต้องจัดกระทำข้อความหมายก็ใช้ได้เลย

จุดยอดคือ อาจารย์ที่ปรึกษา ที่ปรึกษาร่วม และกรรมการ

เส้นเชื่อมคือ ความสัมพันธ์ระหว่างอาจารย์

teacher_network <- thesis_data %>% 
  select(code, year, advisor, co_advisor, starts_with("commitee"))
teacher_network

# A tibble: 55 × 7
    code  year advisor        co_advisor       commitee1     commitee2 commitee3
   <dbl> <dbl> <chr>          <chr>            <chr>         <chr>     <chr>    
 1     1  2543 ศิริชัย กาญจนวาสี  สุชาดา บวรกิติวงศ์   ทวีวัฒน์ ปิตยานนท์ ศิริเดช สุชี… <NA>     
 2     2  2550 สุชาดา บวรกิติวงศ์ <NA>             นงลักษณ์ วิรัชชัย  <NA>      <NA>     
 3     3  2550 สุชาดา บวรกิติวงศ์ วรรณี แกมเกตุ      สิริพันธุ์ สุวรรณม… ศิริเดช สุชี… <NA>     
 4     4  2550 สุชาดา บวรกิติวงศ์ สิริพันธุ์ สุวรรณมรรคา <NA>          <NA>      <NA>     
 5     5  2551 สุชาดา บวรกิติวงศ์ วรรณี แกมเกตุ      <NA>          <NA>      <NA>     
 6     6  2551 สุชาดา บวรกิติวงศ์ ศิริเดช สุชีวะ       <NA>          <NA>      <NA>     
 7     7  2551 สุชาดา บวรกิติวงศ์ สิริพันธุ์ สุวรรณมรรคา <NA>          <NA>      <NA>     
 8     8  2552 สุชาดา บวรกิติวงศ์ วรรณี แกมเกตุ      <NA>          <NA>      <NA>     
 9     9  2552 สุชาดา บวรกิติวงศ์ วรรณี แกมเกตุ      <NA>          <NA>      <NA>     
10    10  2552 สุชาดา บวรกิติวงศ์ <NA>             วรรณี แกมเกตุ   <NA>      <NA>     
# ℹ 45 more rows

คราวนี้เราจะต้องทำข้อมูลให้เป็นรูปแบบ adjacency หรือ edgelist ก่อน ในกรณีนี้เราทำเป็น edgelist น่าจะสะดวกกว่า

teacher_network_edgelist <- teacher_network %>% 
  pivot_longer(cols = c("co_advisor",starts_with("commitee")),
               names_to = "role",
               values_to = "name") %>% 
  drop_na() %>% 
  ## ตัดนามสกุลออก
  mutate(advisor = str_remove(advisor, "\\s.*"),
         name = str_remove(name, "\\s.*")) %>% 
  mutate(name = str_replace(name, "Professor","Martinez"))
teacher_network_edgelist

# A tibble: 125 × 5
    code  year advisor role       name  
   <dbl> <dbl> <chr>   <chr>      <chr> 
 1     1  2543 ศิริชัย    co_advisor สุชาดา 
 2     1  2543 ศิริชัย    commitee1  ทวีวัฒน์ 
 3     1  2543 ศิริชัย    commitee2  ศิริเดช 
 4     2  2550 สุชาดา   commitee1  นงลักษณ์
 5     3  2550 สุชาดา   co_advisor วรรณี  
 6     3  2550 สุชาดา   commitee1  สิริพันธุ์ 
 7     3  2550 สุชาดา   commitee2  ศิริเดช 
 8     4  2550 สุชาดา   co_advisor สิริพันธุ์ 
 9     5  2551 สุชาดา   co_advisor วรรณี  
10     6  2551 สุชาดา   co_advisor ศิริเดช 
# ℹ 115 more rows
…
## edge dataset
edge_data <- teacher_network %>% 
  pivot_longer(cols = c("co_advisor",starts_with("commitee")),
               names_to = "role",
               values_to = "name") %>% 
  drop_na() %>% 
  ## ตัดนามสกุลออก
  mutate(advisor = str_remove(advisor, "\\s.*"),
         name = str_remove(name, "\\s.*")) %>% 
  mutate(name = str_replace(name, "Professor","Martinez")) %>% 
  select(advisor, name, code, year, role) %>% 
  rename(name_role = role) 
edge_data

# A tibble: 125 × 5
   advisor name    code  year name_role 
   <chr>   <chr>  <dbl> <dbl> <chr>     
 1 ศิริชัย    สุชาดา      1  2543 co_advisor
 2 ศิริชัย    ทวีวัฒน์      1  2543 commitee1 
 3 ศิริชัย    ศิริเดช      1  2543 commitee2 
 4 สุชาดา   นงลักษณ์     2  2550 commitee1 
 5 สุชาดา   วรรณี       3  2550 co_advisor
 6 สุชาดา   สิริพันธุ์      3  2550 commitee1 
 7 สุชาดา   ศิริเดช      3  2550 commitee2 
 8 สุชาดา   สิริพันธุ์      4  2550 co_advisor
 9 สุชาดา   วรรณี       5  2551 co_advisor
10 สุชาดา   ศิริเดช      6  2551 co_advisor
# ℹ 115 more rows
…
