KruRooSocNet
…
    left_join(ego_data, by = "ego") %>% 
    rename(department_ego = 4) %>% 
   ## department ของ alter
   left_join(ego_data, by = join_by("alter" == "ego")) %>% 
    rename(department_alter = 5) %>% 
  filter(ego != alter) %>% 
  group_by(ego, department_ego, department_alter) %>% 
  reframe(freq = sum(tie)) %>% 
 # ungroup() %>% 
  group_by(ego, department_ego) %>% 
  mutate(prop = freq/sum(freq)) %>% 
  mutate(IQV = (1 - sum(prop^2)) / (1 - 1/n())) %>% 
  pivot_wider(names_from = department_alter, values_from = c(freq,prop), values_fill = 0)

# A tibble: 21 × 13
# Groups:   ego, department_ego [21]
   ego   department_ego     IQV freq_0 freq_1 freq_2 freq_3 freq_4  prop_0
   <chr>          <int>   <dbl>  <int>  <int>  <int>  <int>  <int>   <dbl>
 1 A01                4   0.6        0      2      0      0      3   0    
 2 A02                4   0.833      0      1      0      1      1   0    
 3 A03                2   0          0      0      2      0      0   0    
 4 A04                4   0.625      0      3      0      0      3   0    
 5 A05                2   0.867      0      2      3      1      1   0    
 6 A06                1   0.833      1      3      1      0      1   0.167
 7 A07                0 NaN          0      0      0      0      0   0    
 8 A08                1   0          0      0      0      0      1   0    
 9 A09                2 NaN          0      0      0      0      0 NaN    
10 A10                3   0.714      0      2      4      0      1   0    
# ℹ 11 more rows
# ℹ 4 more variables: prop_1 <dbl>, prop_2 <dbl>, prop_3 <dbl>, prop_4 <dbl>
…
