Exploratory Data Analysis
…
เนื้อหาส่วนนี้จะใช้ชุดข้อมูล learning_data.csv เป็นชุดข้อมูลตัวอย่าง

วิเคราะห์ปัจจัยที่มีความสัมพันธ์กับความสำเร็จในการเรียนวิชาวิจัย

สร้างโมเดลทำนายความสำเร็จในการเรียนวิชาวิจัย

เรียก library-tidyverse และนำข้อมูลเข้า R

library(tidyverse)
## importing data
data <- read_csv("learning_data.csv")
## print some of data
data

# A tibble: 385 × 11
   student_id choose_method concepts interpretation research_score submit_time
        <dbl>         <dbl>    <dbl>          <dbl>          <dbl>       <dbl>
 1 6341150327            60     57.1           56.2             72       156. 
 2 6341182427            40     57.1           31.2             72       145. 
 3 6441001627            40     42.9           50               71       141. 
 4 6441002227            20     50             43.8             72       150. 
 5 6441003927            10     21.4           50               62       129. 
 6 6441005127            20     42.9           75               75       162. 
 7 6441006827            20     64.3           56.2             82       130. 
 8 6441007427            40     57.1           50               76        88.6
 9 6441008027            50     64.3           62.5             85       130. 
10 6441010227            60     42.9           56.2             73       109. 
# ℹ 375 more rows
# ℹ 5 more variables: percent_submit <dbl>, gender <chr>, department <chr>,
#   learning_performance <dbl>, cheat_index <dbl>
…
