ggplot Extensions
…
── Attaching core tidyverse packages ──────────────────────── tidyverse 2.0.0 ──
✔ dplyr     1.1.4     ✔ readr     2.1.5
✔ forcats   1.0.0     ✔ stringr   1.5.1
✔ lubridate 1.9.3     ✔ tibble    3.2.1
✔ purrr     1.0.2     ✔ tidyr     1.3.1
── Conflicts ────────────────────────────────────────── tidyverse_conflicts() ──
✖ dplyr::filter()    masks stats::filter()
✖ dplyr::lag()       masks stats::lag()
✖ lubridate::stamp() masks cowplot::stamp()
ℹ Use the conflicted package (<http://conflicted.r-lib.org/>) to force all conflicts to become errors

data <- read_csv("/Users/choat/Documents/GitHub/datakruroo.github.io/DataVisualization/week01/learning_data.csv")
data |> select(-1)

# A tibble: 385 × 10
   choose_method concepts interpretation research_score submit_time
           <dbl>    <dbl>          <dbl>          <dbl>       <dbl>
 1            60     57.1           56.2             72       156. 
 2            40     57.1           31.2             72       145. 
 3            40     42.9           50               71       141. 
 4            20     50             43.8             72       150. 
 5            10     21.4           50               62       129. 
 6            20     42.9           75               75       162. 
 7            20     64.3           56.2             82       130. 
 8            40     57.1           50               76        88.6
 9            50     64.3           62.5             85       130. 
10            60     42.9           56.2             73       109. 
# ℹ 375 more rows
# ℹ 5 more variables: percent_submit <dbl>, gender <chr>, department <chr>,
#   learning_performance <dbl>, cheat_index <dbl>
…
data <- read_csv("/Users/choat/Documents/GitHub/datakruroo.github.io/DataVisualization/week01/learning_data.csv")

Rows: 385 Columns: 11
── Column specification ────────────────────────────────────────────────────────
Delimiter: ","
chr (2): gender, department
dbl (9): student_id, choose_method, concepts, interpretation, research_score...

ℹ Use `spec()` to retrieve the full column specification for this data.
ℹ Specify the column types or set `show_col_types = FALSE` to quiet this message.

data |> select(-1)

# A tibble: 385 × 10
   choose_method concepts interpretation research_score submit_time
           <dbl>    <dbl>          <dbl>          <dbl>       <dbl>
 1            60     57.1           56.2             72       156. 
 2            40     57.1           31.2             72       145. 
 3            40     42.9           50               71       141. 
 4            20     50             43.8             72       150. 
 5            10     21.4           50               62       129. 
 6            20     42.9           75               75       162. 
 7            20     64.3           56.2             82       130. 
 8            40     57.1           50               76        88.6
 9            50     64.3           62.5             85       130. 
10            60     42.9           56.2             73       109. 
# ℹ 375 more rows
# ℹ 5 more variables: percent_submit <dbl>, gender <chr>, department <chr>,
#   learning_performance <dbl>, cheat_index <dbl>
…
