Regression
…
## partial dependence plot (pdp)

### 1. สร้าง grid ที่เป็น combination ระหว่างตัวแปรอิสระที่ interact กันก่อน
### สร้าง grid ของ yrs.service
yrs_grid <- seq(min(data$yrs.service), max(data$yrs.service), 2)
### สร้าง grid ของ discipline
dis_grid <- c("A","B")

### combination ของ grid
expand_grid(yrs.service = yrs_grid, discipline = dis_grid)

# A tibble: 62 × 2
   yrs.service discipline
         <dbl> <chr>     
 1           0 A         
 2           0 B         
 3           2 A         
 4           2 B         
 5           4 A         
 6           4 B         
 7           6 A         
 8           6 B         
 9           8 A         
10           8 B         
# ℹ 52 more rows
…
  rowwise() %>% 
  mutate(
         student_climate_online = mean(c(climate.online1, climate.online2, climate.online3)),
         student_climate_onsite = rowMeans(across(starts_with("climate.onsite"))),
         student_interaction_online = mean(c(interaction.online1, interaction.online2, interaction.online3)),
         student_interaction_onsite = rowMeans(across(starts_with("interaction.onsite"))),
         student_outcome_online = (outcome.online1*20 + outcome.online2*20 + outcome.online3*20 +outcome.online4)/4,
         student_outcome_onsite = (outcome.onsite1*20 + outcome.onsite2*20 + outcome.onsite3*20 +outcome.onsite4)/4
         ) %>%
  dplyr::select(-starts_with("interaction"), -starts_with("outcome")) %>% 
  dplyr::select(-starts_with("climate")) %>%
  mutate(student_num_device = sum(c(smartphone,ipad,computer),na.rm = T))  %>% 
  ungroup()

# A tibble: 1,000 × 36
   student_id school_type     school_location num_subject num_online num_onsite
        <dbl> <chr>           <chr>                 <dbl>      <dbl>      <dbl>
 1          1 โรงเรียนมัธยมศึกษา กลาง                      8          4          4
 2          2 โรงเรียนมัธยมศึกษา กลาง                      8          8          0
 3          3 โรงเรียนมัธยมศึกษา กลาง                      8          8          0
 4          4 โรงเรียนมัธยมศึกษา กลาง                      7          7          0
 5          5 โรงเรียนมัธยมศึกษา กลาง                      7          7          0
 6          6 โรงเรียนมัธยมศึกษา กลาง                      7          7          0
 7          7 โรงเรียนมัธยมศึกษา กลาง                      8          3          5
 8          8 โรงเรียนมัธยมศึกษา กลาง                      7          7          0
 9          9 โรงเรียนมัธยมศึกษา กลาง                      8          1          7
10         10 โรงเรียนมัธยมศึกษา กลาง                      8          8          0
# ℹ 990 more rows
# ℹ 30 more variables: school_readiness <dbl>, videoConference <dbl>,
#   Live <dbl>, LMS <dbl>, groupChat <dbl>, email <dbl>, collapApps <dbl>,
#   clipVideo <dbl>, avg_teacher_age <dbl>, avg_teacher_techcomp <dbl>,
#   student_gender <dbl>, student_level <dbl>, student_location <chr>,
#   student_learningstyle <dbl>, smartphone <dbl>, ipad <dbl>, computer <dbl>,
#   student_internet_readiness <dbl>, student_home_climate <dbl>, …
…
