Week 2: Modelling Process
…
Predict Test data

เมื่อ train model แล้วเราสามารถนำโมเดลที่ train ได้ไปทำนายตัวแปรตามใน test data ได้ดังนี้

pred_lm <- predict(lm_fit, new_data = test_data_strata)
pred_knn <- predict(knn_fit, new_data = test_data_strata)

test_data_strata |> 
  bind_cols(pred_lm, pred_knn) |> 
  rename(pred_lm = 11,
         pred_knn = 12)

# A tibble: 117 × 12
   choose_method concepts interpretation research_score submit_time
           <dbl>    <dbl>          <dbl>          <dbl>       <dbl>
 1            60     57.1           56.2             72       156. 
 2            40     57.1           31.2             72       145. 
 3            40     42.9           50               71       141. 
 4            10     21.4           50               62       129. 
 5            20     64.3           56.2             82       130. 
 6            40     57.1           50               76        88.6
 7            50     64.3           62.5             85       130. 
 8            40     50             56.2             83        99.0
 9            30     85.7           56.2             74       115. 
10            10     57.1           53.3             76       128. 
# ℹ 107 more rows
# ℹ 7 more variables: percent_submit <dbl>, gender <chr>, department <chr>,
#   learning_performance <dbl>, cheat_index <dbl>, pred_lm <dbl>,
#   pred_knn <dbl>
…
