Week 2: Modelling Process
…
  # เพิ่มผลลัพธ์ลงใน tibble
  results <- results %>%
    add_row(predictor = x, rsq = rsq)
}

Syntax สำหรับกิจกรรม 2

สำรวจความสัมพันธ์ระหว่าง y กับ x (ต่อ)

results %>% 
  arrange(desc(rsq))

# A tibble: 32 × 2
   predictor    rsq
   <chr>      <dbl>
 1 G2        0.801 
 2 G1        0.596 
 3 failures  0.117 
 4 Medu      0.0375
 5 Mjob      0.0336
 6 romantic  0.0298
 7 higher    0.0277
 8 age       0.0214
 9 reason    0.0168
10 famsize   0.0156
# ℹ 22 more rows
…
Cross-validation results

collect_metrics() เป็นฟังก์ชันที่ช่วยให้ผู้วิเคราะห์เข้าถึงผลที่ได้จากการทดลอง fit model ในเงื่อนไขต่าง ๆ พร้อมค่าบ่งชี้ประสิทธิภาพ

tune_results %>% collect_metrics()

# A tibble: 150 × 7
   penalty .metric   .estimator  mean     n std_err .config              
     <dbl> <chr>     <chr>      <dbl> <int>   <dbl> <chr>                
 1 0.001   accuracy  binary     0.914    30 0.00855 Preprocessor1_Model01
 2 0.001   precision binary     0.936    30 0.0130  Preprocessor1_Model01
 3 0.001   roc_auc   binary     0.975    30 0.00380 Preprocessor1_Model01
 4 0.001   sens      binary     0.937    30 0.0102  Preprocessor1_Model01
 5 0.001   spec      binary     0.885    30 0.0194  Preprocessor1_Model01
 6 0.00137 accuracy  binary     0.911    30 0.00846 Preprocessor1_Model02
 7 0.00137 precision binary     0.934    30 0.0124  Preprocessor1_Model02
 8 0.00137 roc_auc   binary     0.975    30 0.00377 Preprocessor1_Model02
 9 0.00137 sens      binary     0.933    30 0.0110  Preprocessor1_Model02
10 0.00137 spec      binary     0.880    30 0.0195  Preprocessor1_Model02
# ℹ 140 more rows
…
