Missing Value Analysis – Siwachoat Srisuttiyakorn
…
การสำรวจค่าสูญหายสำหรับข้อมูลขนาดใหญ่

ในกรณีที่ชุดข้อมูลมีขนาดใหญ่ โดยเฉพาะเมื่อมีตัวแปรจำนวนมาก การใช้ heatmap หรือ co-occurence plot อาจมีประสิทธิภาพน้อยลง ลองใช้วิธีการข้างต้นวิเคราะห์สภาพการสูญหายในชุดข้อมูลต่อไปนี้

ดาวน์โหลด

large_data <- read_csv("/Users/choat/Downloads/onlinelearning_miss.csv")
large_data <- large_data %>% select(-1) %>% 
  rename(student_id = X)

miss_var_summary(large_data) %>% 
  arrange(desc(pct_miss))

# A tibble: 49 × 3
   variable            n_miss pct_miss
   <chr>                <int>    <num>
 1 climate.online1         97      9.7
 2 climate.onsite2         88      8.8
 3 climate.online3         87      8.7
 4 climate.onsite3         80      8  
 5 climate.onsite1         72      7.2
 6 climate.online2         70      7  
 7 computer                29      2.9
 8 interaction.online1     27      2.7
 9 interaction.onsite1     27      2.7
10 outcome.onsite3         26      2.6
# ℹ 39 more rows
…
