Week06: Single Learner
…
i 1 of 2 tuning:     norm_reg_logit

✔ 1 of 2 tuning:     norm_reg_logit (8.8s)

i 2 of 2 tuning:     base_cart

✔ 2 of 2 tuning:     base_cart (1.3s)

## 
all_tuned_result %>% collect_metrics()

# A tibble: 160 × 9
   wflow_id       .config   preproc model .metric .estimator  mean     n std_err
   <chr>          <chr>     <chr>   <chr> <chr>   <chr>      <dbl> <int>   <dbl>
 1 norm_reg_logit Preproce… recipe  logi… accura… binary     0.706    15 0.0124 
 2 norm_reg_logit Preproce… recipe  logi… roc_auc binary     0.782    15 0.0109 
 3 norm_reg_logit Preproce… recipe  logi… sens    binary     0.698    15 0.0205 
 4 norm_reg_logit Preproce… recipe  logi… spec    binary     0.726    15 0.0288 
 5 norm_reg_logit Preproce… recipe  logi… accura… binary     0.716    15 0.00995
 6 norm_reg_logit Preproce… recipe  logi… roc_auc binary     0.791    15 0.0105 
 7 norm_reg_logit Preproce… recipe  logi… sens    binary     0.712    15 0.0148 
 8 norm_reg_logit Preproce… recipe  logi… spec    binary     0.728    15 0.0212 
 9 norm_reg_logit Preproce… recipe  logi… accura… binary     0.716    15 0.00995
10 norm_reg_logit Preproce… recipe  logi… roc_auc binary     0.791    15 0.0105 
# ℹ 150 more rows
…
